{
	"1":{
		"width":{
			"gfloat":397.0
		}
	},
	"2":{
		"height":{
        	        "gfloat":480.0
		}
        },
	"3":{
		"roller-type":{
			"gint":0
		}
	},
	"5":{
		"roll-over":{
                	"gboolean":true
		}
	},
	"6":{
		"reactive":{
			"gboolean":true
		}
        },
	"7":{
		"show-arrow":{
			"gboolean":true
		}
	},
	"8":{
		"arrow-position":{
			"gfloat":362.0
		}
	}
}	
